mips/mips-single-cycle/sim.log
Reading /home/rahul/altera/14.0/modelsim_ase/tcl/vsim/pref.tcl 

# 10.1e

# vsim -do {onElabError resume;  run -all; exit} -c -sv_lib iss top_tb 
# Loading sv_std.std
# Loading work.top_tb
# Loading work.top
# Loading work.pc_reg
# Loading work.adder
# Loading work.carry_lookahead_adder
# Loading work.reduced_full_adder
# Loading work.carry_lookahead_gen
# Loading work.instr_mem
# Loading work.decode
# Loading work.regfile
# Loading work.alu
# Loading work.shifter
# Loading work.logical
# Loading work.comparator
# Loading work.data_mem
# Loading work.control
# Loading ./iss.so
# onElabError resume 
# resume
#   run -all 
# ** Warning: (vsim-PLI-3408) Too few data words read on line 102 of file "instr_hex". Expected 1000, found 101.    : testbench/init_imem.sv(7)
#    Time: 0 ps  Iteration: 0  Instance: /top_tb
# MIPS Simulator
# 
# Loading instr_hex
# Read 101 words from program into memory.
# 
# Init done
# CPU initialised
# 
# [RTL]  	PC:00000000	Instr:2e695102	R19:00000000	R9:00000001
# [MODEL]	PC:00000000	Instr:2e695102	R19:00000000	R9:00000001
# [RTL]  	PC:00000004	Instr:252cc3b5	R9:00000001	R12:ffffc3b6
# [MODEL]	PC:00000004	Instr:252cc3b5	R9:00000001	R12:ffffc3b6
# [RTL]  	PC:00000008	Instr:036334a7	R6:ffffffff	R27:00000000	R3:00000000
# [MODEL]	PC:00000008	Instr:036334a7	R6:ffffffff	R27:00000000	R3:00000000
# [RTL]  	PC:0000000c	Instr:031b4522	R8:00000000	R24:00000000	R27:00000000
# [MODEL]	PC:0000000c	Instr:031b4522	R8:00000000	R24:00000000	R27:00000000
# [RTL]  	PC:00000010	Instr:2b5609cb	R26:00000000	R22:00000001
# [MODEL]	PC:00000010	Instr:2b5609cb	R26:00000000	R22:00000001
# [RTL]  	PC:00000014	Instr:253f7302	R9:00000001	R31:00007303
# [MODEL]	PC:00000014	Instr:253f7302	R9:00000001	R31:00007303
# [RTL]  	PC:00000018	Instr:02f1c342	R24:00000000	R17:00000000	R17:00000000
# [MODEL]	PC:00000018	Instr:02f1c342	R24:00000000	R17:00000000	R17:00000000
# [RTL]  	PC:0000001c	Instr:2fa5e43f	R29:00000000	R5:00000001
# [MODEL]	PC:0000001c	Instr:2fa5e43f	R29:00000000	R5:00000001
# [RTL]  	PC:00000020	Instr:afc91e77	R30:00000000	R9:00000001
# [MODEL]	PC:00000020	Instr:afc91e77	R30:00000000	R9:00000001
# Addr:2012	mem_content:efefefef
# [RTL]  	PC:00000024	Instr:8e8d2012	R20:00000000	R13:efefefef
# [MODEL]	PC:00000024	Instr:8e8d2012	R20:00000000	R13:efefefef
# [RTL]  	PC:00000028	Instr:03bc3862	R7:00000000	R29:00000000	R28:00000000
# [MODEL]	PC:00000028	Instr:03bc3862	R7:00000000	R29:00000000	R28:00000000
# [RTL]  	PC:0000002c	Instr:00210fa5	R1:00000000	R1:00000000	R1:00000000
# [MODEL]	PC:0000002c	Instr:00210fa5	R1:00000000	R1:00000000	R1:00000000
# [RTL]  	PC:00000030	Instr:003ebfa4	R23:00000000	R1:00000000	R30:00000000
# [MODEL]	PC:00000030	Instr:003ebfa4	R23:00000000	R1:00000000	R30:00000000
# [RTL]  	PC:00000034	Instr:02cfc2e2	R24:00000001	R22:00000001	R15:00000000
# [MODEL]	PC:00000034	Instr:02cfc2e2	R24:00000001	R22:00000001	R15:00000000
# [RTL]  	PC:00000038	Instr:021bdb24	R27:00000000	R16:00000000	R27:00000000
# [MODEL]	PC:00000038	Instr:021bdb24	R27:00000000	R16:00000000	R27:00000000
# [RTL]  	PC:0000003c	Instr:028cc720	R24:ffffc3b6	R20:00000000	R12:ffffc3b6
# [MODEL]	PC:0000003c	Instr:028cc720	R24:ffffc3b6	R20:00000000	R12:ffffc3b6
# [RTL]  	PC:00000040	Instr:2742d092	R26:00000000	R2:ffffd092
# [MODEL]	PC:00000040	Instr:2742d092	R26:00000000	R2:ffffd092
# [RTL]  	PC:00000044	Instr:215a3901	R10:00000000	R26:00003901
# [MODEL]	PC:00000044	Instr:215a3901	R10:00000000	R26:00003901
# Addr:3f53	mem_content:efefefef
# [RTL]  	PC:00000048	Instr:8cd13f54	R6:ffffffff	R17:efefefef
# [MODEL]	PC:00000048	Instr:8cd13f54	R6:ffffffff	R17:efefefef
# [RTL]  	PC:0000004c	Instr:02b8f502	R30:00000fff	R24:ffffc3b6	R24:ffffc3b6
# [MODEL]	PC:0000004c	Instr:02b8f502	R30:00000fff	R24:ffffc3b6	R24:ffffc3b6
# [RTL]  	PC:00000050	Instr:2b999acd	R28:00000000	R25:00000000
# [MODEL]	PC:00000050	Instr:2b999acd	R28:00000000	R25:00000000
# [RTL]  	PC:00000054	Instr:02b15bc3	R11:0001dfdf	R17:efefefef	R17:efefefef
# [MODEL]	PC:00000054	Instr:02b15bc3	R11:0001dfdf	R17:efefefef	R17:efefefef
# [RTL]  	PC:00000058	Instr:31e5319e	R15:00000000	R5:00000000
# [MODEL]	PC:00000058	Instr:31e5319e	R15:00000000	R5:00000000
# [RTL]  	PC:0000005c	Instr:03455060	R10:00003901	R26:00003901	R5:00000000
# [MODEL]	PC:0000005c	Instr:03455060	R10:00003901	R26:00003901	R5:00000000
# [RTL]  	PC:00000060	Instr:ad107be4	R8:00000000	R16:00000000
# [MODEL]	PC:00000060	Instr:ad107be4	R8:00000000	R16:00000000
# [RTL]  	PC:00000064	Instr:007e47e7	R8:fffff000	R3:00000000	R30:00000fff
# [MODEL]	PC:00000064	Instr:007e47e7	R8:fffff000	R3:00000000	R30:00000fff
# [RTL]  	PC:00000068	Instr:00b49900	R19:00000000	R20:00000000	R20:00000000
# [MODEL]	PC:00000068	Instr:00b49900	R19:00000000	R20:00000000	R20:00000000
# [RTL]  	PC:0000006c	Instr:01791f83	R3:00000000	R25:00000000	R25:00000000
# [MODEL]	PC:0000006c	Instr:01791f83	R3:00000000	R25:00000000	R25:00000000
# [RTL]  	PC:00000070	Instr:2c844a11	R4:00000001	R4:00000001
# [MODEL]	PC:00000070	Instr:2c844a11	R4:00000001	R4:00000001
# [RTL]  	PC:00000074	Instr:01546724	R12:00000000	R10:00003901	R20:00000000
# [MODEL]	PC:00000074	Instr:01546724	R12:00000000	R10:00003901	R20:00000000
# [RTL]  	PC:00000078	Instr:01fb9c2b	R19:00000000	R15:00000000	R27:00000000
# [MODEL]	PC:00000078	Instr:01fb9c2b	R19:00000000	R15:00000000	R27:00000000
# [RTL]  	PC:0000007c	Instr:21101aff	R8:fffff000	R16:00000aff
# [MODEL]	PC:0000007c	Instr:21101aff	R8:fffff000	R16:00000aff
# [RTL]  	PC:00000080	Instr:25fbc813	R15:00000000	R27:ffffc813
# [MODEL]	PC:00000080	Instr:25fbc813	R15:00000000	R27:ffffc813
# [RTL]  	PC:00000084	Instr:3bbb164b	R29:00000000	R27:0000164b
# [MODEL]	PC:00000084	Instr:3bbb164b	R29:00000000	R27:0000164b
# [RTL]  	PC:00000088	Instr:2f9afa26	R28:00000000	R26:00000001
# [MODEL]	PC:00000088	Instr:2f9afa26	R28:00000000	R26:00000001
# [RTL]  	PC:0000008c	Instr:2b0993d9	R24:ffffc3b6	R9:00000000
# [MODEL]	PC:0000008c	Instr:2b0993d9	R24:ffffc3b6	R9:00000000
# [RTL]  	PC:00000090	Instr:2d55fc4a	R10:00003901	R21:00000001
# [MODEL]	PC:00000090	Instr:2d55fc4a	R10:00003901	R21:00000001
# [RTL]  	PC:00000094	Instr:0300cca7	R25:00003c49	R24:ffffc3b6	R0:00000000
# [MODEL]	PC:00000094	Instr:0300cca7	R25:00003c49	R24:ffffc3b6	R0:00000000
# [RTL]  	PC:00000098	Instr:33948bfe	R28:00000000	R20:00000000
# [MODEL]	PC:00000098	Instr:33948bfe	R28:00000000	R20:00000000
# [RTL]  	PC:0000009c	Instr:016c2ea7	R5:fffe2020	R11:0001dfdf	R12:00000000
# [MODEL]	PC:0000009c	Instr:016c2ea7	R5:fffe2020	R11:0001dfdf	R12:00000000
# [RTL]  	PC:000000a0	Instr:016ad06a	R26:00000000	R11:0001dfdf	R10:00003901
# [MODEL]	PC:000000a0	Instr:016ad06a	R26:00000000	R11:0001dfdf	R10:00003901
# [RTL]  	PC:000000a4	Instr:321e5953	R16:00000aff	R30:00000853
# [MODEL]	PC:000000a4	Instr:321e5953	R16:00000aff	R30:00000853
# [RTL]  	PC:000000a8	Instr:238447c3	R28:00000000	R4:000047c3
# [MODEL]	PC:000000a8	Instr:238447c3	R28:00000000	R4:000047c3
# [RTL]  	PC:000000ac	Instr:01e284c2	R16:00001fff	R2:ffffd092	R2:ffffd092
# [MODEL]	PC:000000ac	Instr:01e284c2	R16:00001fff	R2:ffffd092	R2:ffffd092
# [RTL]  	PC:000000b0	Instr:02554be1	R9:00000001	R18:00000000	R21:00000001
# [MODEL]	PC:000000b0	Instr:02554be1	R9:00000001	R18:00000000	R21:00000001
# [RTL]  	PC:000000b4	Instr:292ee790	R9:00000001	R14:00000000
# [MODEL]	PC:000000b4	Instr:292ee790	R9:00000001	R14:00000000
# [RTL]  	PC:000000b8	Instr:0149a480	R20:00040000	R9:00000001	R9:00000001
# [MODEL]	PC:000000b8	Instr:0149a480	R20:00040000	R9:00000001	R9:00000001
# [RTL]  	PC:000000bc	Instr:039572a7	R14:fffffffe	R28:00000000	R21:00000001
# [MODEL]	PC:000000bc	Instr:039572a7	R14:fffffffe	R28:00000000	R21:00000001
# [RTL]  	PC:000000c0	Instr:019b992a	R19:00000001	R12:00000000	R27:0000164b
# [MODEL]	PC:000000c0	Instr:019b992a	R19:00000001	R12:00000000	R27:0000164b
# [RTL]  	PC:000000c4	Instr:01bb4de7	R9:10100010	R13:efefefef	R27:0000164b
# [MODEL]	PC:000000c4	Instr:01bb4de7	R9:10100010	R13:efefefef	R27:0000164b
# [RTL]  	PC:000000c8	Instr:009379a7	R15:ffffb83c	R4:000047c3	R19:00000001
# [MODEL]	PC:000000c8	Instr:009379a7	R15:ffffb83c	R4:000047c3	R19:00000001
# [RTL]  	PC:000000cc	Instr:33e42bf5	R31:00007303	R4:00002301
# [MODEL]	PC:000000cc	Instr:33e42bf5	R31:00007303	R4:00002301
# [RTL]  	PC:000000d0	Instr:20f6bb31	R7:00000000	R22:ffffbb31
# [MODEL]	PC:000000d0	Instr:20f6bb31	R7:00000000	R22:ffffbb31
# [RTL]  	PC:000000d4	Instr:0144832a	R16:00000000	R10:00003901	R4:00002301
# [MODEL]	PC:000000d4	Instr:0144832a	R16:00000000	R10:00003901	R4:00002301
# [RTL]  	PC:000000d8	Instr:00acd8e4	R27:00000000	R5:fffe2020	R12:00000000
# [MODEL]	PC:000000d8	Instr:00acd8e4	R27:00000000	R5:fffe2020	R12:00000000
# [RTL]  	PC:000000dc	Instr:028c592a	R11:00000000	R20:00040000	R12:00000000
# [MODEL]	PC:000000dc	Instr:028c592a	R11:00000000	R20:00040000	R12:00000000
# [RTL]  	PC:000000e0	Instr:afda7a55	R30:00000853	R26:00000000
# [MODEL]	PC:000000e0	Instr:afda7a55	R30:00000853	R26:00000000
# [RTL]  	PC:000000e4	Instr:2ef3702c	R23:00000000	R19:00000001
# [MODEL]	PC:000000e4	Instr:2ef3702c	R23:00000000	R19:00000001
# [RTL]  	PC:000000e8	Instr:0293c8e2	R25:0003ffff	R20:00040000	R19:00000001
# [MODEL]	PC:000000e8	Instr:0293c8e2	R25:0003ffff	R20:00040000	R19:00000001
# [RTL]  	PC:000000ec	Instr:001287aa	R16:00000000	R0:00000000	R18:00000000
# [MODEL]	PC:000000ec	Instr:001287aa	R16:00000000	R0:00000000	R18:00000000
# [RTL]  	PC:000000f0	Instr:0281f166	R30:00040000	R20:00040000	R1:00000000
# [MODEL]	PC:000000f0	Instr:0281f166	R30:00040000	R20:00040000	R1:00000000
# [RTL]  	PC:000000f4	Instr:031a4922	R9:ffffc3b6	R24:ffffc3b6	R26:00000000
# [MODEL]	PC:000000f4	Instr:031a4922	R9:ffffc3b6	R24:ffffc3b6	R26:00000000
# [RTL]  	PC:000000f8	Instr:32031d30	R16:00000000	R3:00000000
# [MODEL]	PC:000000f8	Instr:32031d30	R16:00000000	R3:00000000
# [RTL]  	PC:000000fc	Instr:03ccf2a0	R30:00040000	R30:00040000	R12:00000000
# [MODEL]	PC:000000fc	Instr:03ccf2a0	R30:00040000	R30:00040000	R12:00000000
# Addr:3ae3	mem_content:efefefef
# [RTL]  	PC:00000100	Instr:8e733ae2	R19:efefefef	R19:efefefef
# [MODEL]	PC:00000100	Instr:8e733ae2	R19:efefefef	R19:efefefef
# [RTL]  	PC:00000104	Instr:3af2470e	R23:00000000	R18:0000470e
# [MODEL]	PC:00000104	Instr:3af2470e	R23:00000000	R18:0000470e
# [RTL]  	PC:00000108	Instr:01252f00	R5:00000000	R5:00000000	R5:00000000
# [MODEL]	PC:00000108	Instr:01252f00	R5:00000000	R5:00000000	R5:00000000
# [RTL]  	PC:0000010c	Instr:3135ece4	R9:ffffc3b6	R21:0000c0a4
# [MODEL]	PC:0000010c	Instr:3135ece4	R9:ffffc3b6	R21:0000c0a4
# [RTL]  	PC:00000110	Instr:01529003	R18:0000470e	R18:0000470e	R18:0000470e
# [MODEL]	PC:00000110	Instr:01529003	R18:0000470e	R18:0000470e	R18:0000470e
# [RTL]  	PC:00000114	Instr:0298aea4	R21:00040000	R20:00040000	R24:ffffc3b6
# [MODEL]	PC:00000114	Instr:0298aea4	R21:00040000	R20:00040000	R24:ffffc3b6
# [RTL]  	PC:00000118	Instr:0044c1a5	R24:fffff393	R2:ffffd092	R4:00002301
# [MODEL]	PC:00000118	Instr:0044c1a5	R24:fffff393	R2:ffffd092	R4:00002301
# [RTL]  	PC:0000011c	Instr:32a7419e	R21:00040000	R7:00000000
# [MODEL]	PC:0000011c	Instr:32a7419e	R21:00040000	R7:00000000
# [RTL]  	PC:00000120	Instr:03e20283	R0:00000000	R2:ffffd092	R2:ffffd092
# [MODEL]	PC:00000120	Instr:03e20283	R0:00000000	R2:ffffd092	R2:ffffd092
# [RTL]  	PC:00000124	Instr:af9e04df	R28:00000000	R30:00040000
# [MODEL]	PC:00000124	Instr:af9e04df	R28:00000000	R30:00040000
# [RTL]  	PC:00000128	Instr:27373a32	R25:0003ffff	R23:00043a31
# [MODEL]	PC:00000128	Instr:27373a32	R25:0003ffff	R23:00043a31
# [RTL]  	PC:0000012c	Instr:ac0c2536	R0:00000000	R12:00000000
# [MODEL]	PC:0000012c	Instr:ac0c2536	R0:00000000	R12:00000000
# [RTL]  	PC:00000130	Instr:32258fad	R17:efefefef	R5:00008fad
# [MODEL]	PC:00000130	Instr:32258fad	R17:efefefef	R5:00008fad
# [RTL]  	PC:00000134	Instr:0380e46a	R28:00000000	R28:00000000	R0:00000000
# [MODEL]	PC:00000134	Instr:0380e46a	R28:00000000	R28:00000000	R0:00000000
# [RTL]  	PC:00000138	Instr:ac9c1085	R4:00002301	R28:00000000
# [MODEL]	PC:00000138	Instr:ac9c1085	R4:00002301	R28:00000000
# [RTL]  	PC:0000013c	Instr:2de3598a	R15:ffffb83c	R3:00000000
# [MODEL]	PC:0000013c	Instr:2de3598a	R15:ffffb83c	R3:00000000
# [RTL]  	PC:00000140	Instr:012fd523	R26:00000b7a	R9:ffffc3b6	R15:ffffb83c
# [MODEL]	PC:00000140	Instr:012fd523	R26:00000b7a	R9:ffffc3b6	R15:ffffb83c
# [RTL]  	PC:00000144	Instr:ad874113	R12:00000000	R7:00000000
# [MODEL]	PC:00000144	Instr:ad874113	R12:00000000	R7:00000000
# [RTL]  	PC:00000148	Instr:35b4d7c2	R13:efefefef	R20:efefffef
# [MODEL]	PC:00000148	Instr:35b4d7c2	R13:efefefef	R20:efefffef
# [RTL]  	PC:0000014c	Instr:2e89d159	R20:efefffef	R9:00000001
# [MODEL]	PC:0000014c	Instr:2e89d159	R20:efefffef	R9:00000001
# [RTL]  	PC:00000150	Instr:38e1445f	R7:00000000	R1:0000445f
# [MODEL]	PC:00000150	Instr:38e1445f	R7:00000000	R1:0000445f
# [RTL]  	PC:00000154	Instr:030db1e2	R22:101003a4	R24:fffff393	R13:efefefef
# [MODEL]	PC:00000154	Instr:030db1e2	R22:101003a4	R24:fffff393	R13:efefefef
# [RTL]  	PC:00000158	Instr:0322c16a	R24:00000000	R25:0003ffff	R2:ffffd092
# [MODEL]	PC:00000158	Instr:0322c16a	R24:00000000	R25:0003ffff	R2:ffffd092
# [RTL]  	PC:0000015c	Instr:23b8def6	R29:00000000	R24:ffffdef6
# [MODEL]	PC:0000015c	Instr:23b8def6	R29:00000000	R24:ffffdef6
# [RTL]  	PC:00000160	Instr:012e8323	R16:00000003	R9:00000001	R14:fffffffe
# [MODEL]	PC:00000160	Instr:012e8323	R16:00000003	R9:00000001	R14:fffffffe
# [RTL]  	PC:00000164	Instr:af4865f5	R26:00000b7a	R8:fffff000
# [MODEL]	PC:00000164	Instr:af4865f5	R26:00000b7a	R8:fffff000
# [RTL]  	PC:00000168	Instr:0242be63	R23:0000767c	R18:0000470e	R2:ffffd092
# [MODEL]	PC:00000168	Instr:0242be63	R23:0000767c	R18:0000470e	R2:ffffd092
# [RTL]  	PC:0000016c	Instr:01e14a03	R9:00000044	R1:0000445f	R1:0000445f
# [MODEL]	PC:0000016c	Instr:01e14a03	R9:00000044	R1:0000445f	R1:0000445f
# [RTL]  	PC:00000170	Instr:31de293b	R14:fffffffe	R30:0000293a
# [MODEL]	PC:00000170	Instr:31de293b	R14:fffffffe	R30:0000293a
# [RTL]  	PC:00000174	Instr:02eacb21	R25:0000af7d	R23:0000767c	R10:00003901
# [MODEL]	PC:00000174	Instr:02eacb21	R25:0000af7d	R23:0000767c	R10:00003901
# [RTL]  	PC:00000178	Instr:3b330aeb	R25:0000af7d	R19:0000a596
# [MODEL]	PC:00000178	Instr:3b330aeb	R25:0000af7d	R19:0000a596
# [RTL]  	PC:0000017c	Instr:20402167	R2:ffffd092	R0:00000000
# [MODEL]	PC:0000017c	Instr:20402167	R2:ffffd092	R0:00000000
# [RTL]  	PC:00000180	Instr:023e2625	R4:efefefff	R17:efefefef	R30:0000293a
# [MODEL]	PC:00000180	Instr:023e2625	R4:efefefff	R17:efefefef	R30:0000293a
# [RTL]  	PC:00000184	Instr:3865f395	R3:00000000	R5:0000f395
# [MODEL]	PC:00000184	Instr:3865f395	R3:00000000	R5:0000f395
# [RTL]  	PC:00000188	Instr:012acfe3	R25:ffffc743	R9:00000044	R10:00003901
# [MODEL]	PC:00000188	Instr:012acfe3	R25:ffffc743	R9:00000044	R10:00003901
# [RTL]  	PC:0000018c	Instr:2402000a	R0:00000000	R2:0000000a
# [MODEL]	PC:0000018c	Instr:2402000a	R0:00000000	R2:0000000a
# [RTL]  	PC:00000190	Instr:0000000c	R0:00000000	R0:00000000	R0:00000000
# [MODEL]	PC:00000190	Instr:0000000c	R0:00000000	R0:00000000	R0:00000000
# End of simulation reached
# 
# ** Note: $finish    : testbench/top_tb.sv(83)
#    Time: 2020 ps  Iteration: 1  Instance: /top_tb
